\relax 
\@writefile{toc}{\contentsline {section}{\numberline {1}Pseudocode}{2}}
\@writefile{toc}{\contentsline {subsection}{\numberline {1.1}BubbleSort Algorithm}{2}}
\@writefile{loa}{\contentsline {algorithm}{\numberline {1}{\ignorespaces BubbleSort Algorithm}}{2}}
\newlabel{euclid}{{1}{2}}
\@writefile{toc}{\contentsline {subsection}{\numberline {1.2}Verification Algorithm}{2}}
\@writefile{loa}{\contentsline {algorithm}{\numberline {2}{\ignorespaces Verification Algorithm}}{2}}
\@writefile{toc}{\contentsline {subsection}{\numberline {1.3}Time Complexity Algorithm}{2}}
\@writefile{loa}{\contentsline {algorithm}{\numberline {3}{\ignorespaces Time Complexity Algorithm}}{2}}
\bibcite{notes}{1}
\@writefile{toc}{\contentsline {section}{\numberline {2}References}{3}}
